Cell Compartment	Tissue	Upregulation	Downregulation
nuclear_envelope	brain	1	1
nuclear_envelope	breast	1	1
nuclear_envelope	kidney	0.04	1
cytoplasmic_vesicle	brain	0.92	1.67E-015
cytoplasmic_vesicle	breast	1	1
cytoplasmic_vesicle	kidney	0.91	2.13E-005
membrane-bounded_vesicle	brain	0.68	3.11E-015
membrane-bounded_vesicle	breast	0.99	1
membrane-bounded_vesicle	kidney	0.99	3.00E-004
membrane-bounded_vesicle	ovary	1	1
membrane-bounded_vesicle	testis	1	1
nucleosome	brain	1	1
nucleosome	breast	1.87E-008	1
nucleosome	kidney	1	1
chromatin	brain	1	1
chromatin	breast	4.62E-006	1
chromatin	kidney	1	1
mitochondrion	brain	1	1
mitochondrion	breast	1	1
mitochondrion	kidney	1	1.86E-008
sarcoplasmic_reticulum	brain	1	1.37E-008
endoplasmic_reticulum	brain	1	0.62
sarcoplasmic_reticulum	breast	1	1
endoplasmic_reticulum	breast	0.98	1
sarcoplasmic_reticulum	kidney	1	1
endoplasmic_reticulum	kidney	0.9	0.03
vacuole	brain	1	1
vacuole	breast	1	1
vacuole	kidney	0.95	0
lysosome	brain	1	1
lysosome	breast	1	1
lysosome	kidney	0.78	0.2
lysosome	ovary	1	1
lysosome	testis	0	1
cell_surface	brain	1.63E-011	1
cell_surface	breast	0.85	0.99
cell_surface	kidney	3.97E-011	1.11E-014
cell_surface	ovary	1	0.99
cell_surface	testis	3.95E-005	1
extracellular_space	brain	1.11E-016	1
extracellular_space	breast	1	1.16E-008
extracellular_space	kidney	2.18E-013	0
extracellular_space	ovary	4.03E-006	7.55E-010
extracellular_space	testis	3.35E-013	0.8
cell_surface	test	0.02331364	0.02639358
chromatin	test	0.047885579	0.008460126
cytoplasmic_vesicle	test	0.04284415	0.05449956
nucleosome	test	0.00000001	0.011111
endoplasmic_reticulum	test	0.005199059	0.034089563
extracellular_space	test	0.040046655	0.032898642
lysosome	test	0.028846591	0.036222351
membrane-bounded_vesicle	test	0.028176000	0.030664972
mitochondrion	test	0.039104674	0.059484147
nuclear_envelope	test	0.056774883	0.008409727
sarcoplasmic_reticulum	test	0.044990788	0.003662371
vacuole	test	0.01113456	0.01761300

